// comment 1
/*
  comentario de linea
  $0 = 1
  print $0
*/
$3 = 100
print (10+5+3)
#include "input2.txt"
// comment 2
$0 = 10
$5 = 15
$1 = ($0 + $5) *3
print $0, DEC
print $0, HEX
print $0, BIN
print $5
